Kickstarter Projects Data
…
1.1 Data Observing

Before we start to clean the data, we need to take a look at our data. This will help us decide which operations are needed in the next step. Here we can see some basic features of the data, such as name, category, goal, and other factors of projects. Also, by observing, we do not see obvious sign of missing data.

1.2 Data Processing

Most of the features were automatically parsed when imported into the dataframe. However, we still want to convert launched into date_format.

kickstarter_table <- kickstarter_table %>%
  mutate(launched = as.Date(launched))
  kickstarter_table

## # A tibble: 378,661 x 15
##         ID name          category main_category currency deadline     goal
##      <int> <chr>         <chr>    <chr>         <chr>    <date>      <dbl>
##  1  1.00e The Songs of Poetry   Publishing    GBP      2015-10-09   1000
##  2  1.00e Greeting Fro Narrati Film & Video  USD      2017-11-01  30000
##  3  1.00e Where is Han Narrati Film & Video  USD      2013-02-26  45000
##  4  1.00e ToshiCapital Music    Music         USD      2012-04-16   5000
##  5  1.00e Community Fi Film &  Film & Video  USD      2015-08-29  19500
##  6  1.00e Monarch Espr Restaur Food          USD      2016-04-01  50000
##  7  1.00e Support Sola Food     Food          USD      2014-12-21   1000
##  8  1.00e Chaser Strip Drinks   Food          USD      2016-03-17  25000
##  9  1.00e SPIN - Premi Product Design        USD      2014-05-29 125000
## 10  1.00e STUDIO IN TH Documen Film & Video  USD      2014-08-10  65000
## # ... with 378,651 more rows, and 8 more variables: launched <date>,
## #   pledged <dbl>, state <chr>, backers <int>, country <chr>, `usd
## #   pledged` <dbl>, usd_pledged_real <dbl>, usd_goal_real <dbl>
…
  "currency",
  "launched",
  "deadline",
  "state",
  "backers",
  "country",
  "usd_pledged_real",
  "usd_goal_real"
  )
  ) %>%
  rename(pledged = usd_pledged_real, goal = usd_goal_real) %>%
  arrange(launched)
  na.omit(kickstarter_table)

## # A tibble: 378,657 x 12
##         ID name      main_category category currency launched   deadline  
##      <int> <chr>     <chr>         <chr>    <chr>    <date>     <date>    
##  1  1.01e Salt of  Film & Video  Film &  USD      1970-01-01 2010-09-15
##  2  1.25e 1st Supe Art           Art      USD      1970-01-01 2010-08-14
##  3  1.38e "\"ICHOR Film & Video  Film &  USD      1970-01-01 2010-05-21
##  4  1.48e "Support Theater       Theater  USD      1970-01-01 2010-06-01
##  5  3.31e Help RIZ Music         Music    USD      1970-01-01 2010-05-04
##  6  4.63e Identity Design        Design   USD      1970-01-01 2010-04-10
##  7  6.95e Student  Publishing    Publish CHF      1970-01-01 2015-10-31
##  8  1.86e Grace Jo Fashion       Fashion  USD      2009-04-21 2009-05-31
##  9  7.10e CRYSTAL  Film & Video  Shorts   USD      2009-04-23 2009-07-20
## 10  1.70e drawing  Art           Illustr USD      2009-04-24 2009-05-03
## # ... with 378,647 more rows, and 5 more variables: state <chr>,
## #   backers <int>, country <chr>, pledged <dbl>, goal <dbl>

Since our goal is to discriminate successful projest from failed projects, we only choose the data of our interest. Then, we can add two more features: days the crowdfunding lasted and word count of the name.

ks_df <- kickstarter_table %>%
  filter(state == "successful" | state == "failed") %>%
  mutate(days = as.integer(deadline - launched),
  word_count = lengths(strsplit(name, " ")))
  ks_df

## # A tibble: 331,675 x 14
##         ID name      main_category category currency launched   deadline  
##      <int> <chr>     <chr>         <chr>    <chr>    <date>     <date>    
##  1  1.86e Grace Jo Fashion       Fashion  USD      2009-04-21 2009-05-31
##  2  7.10e CRYSTAL  Film & Video  Shorts   USD      2009-04-23 2009-07-20
##  3  1.70e drawing  Art           Illustr USD      2009-04-24 2009-05-03
##  4  7.27e Offline  Technology    Software USD      2009-04-25 2009-07-14
##  5  1.62e Pantshir Fashion       Fashion  USD      2009-04-27 2009-05-26
##  6  2.09e New York Journalism    Journal USD      2009-04-28 2009-05-16
##  7  1.17e Smogr Al Design        Graphic USD      2009-04-29 2009-07-04
##  8  1.78e Icons fo Technology    Software USD      2009-04-29 2009-06-15
##  9  2.66e Help me  Publishing    Fiction  USD      2009-04-29 2009-05-29
## 10  4.70e kicey to Photography   Photogr USD      2009-04-29 2009-06-17
## # ... with 331,665 more rows, and 7 more variables: state <chr>,
## #   backers <int>, country <chr>, pledged <dbl>, goal <dbl>, days <int>,
## #   word_count <int>
…
3.3 Splitting Data

Now were ready to split our data into test and training. We will not touch the test data until we have a model to test after splitting. When we split our data into test and train, we want as little difference in the distribution between these two datasets as possible. So well shuffle our data before splitting.

We also need to decide how much to train on and how much to test on. More training data will improve models generalization. Hence we put more data into training than testing. The general approach is to have 1/10 of the data as test data.

# Randomize the data
randomized_df <- sample_frac(ks_df, 1)
# Split the data
cutoff <- as.integer(nrow(randomized_df)/10)
ks_train <- slice(randomized_df, 0:cutoff)
ks_test <- slice(randomized_df, cutoff+1:n())
ks_test

## # A tibble: 298,508 x 14
##         ID name      main_category category currency launched   deadline  
##      <int> <chr>     <chr>         <chr>    <chr>    <date>     <date>    
##  1  4.03e Tulare S Food          Drinks   USD      2015-11-20 2015-12-20
##  2  5.12e Keyflowe Games         Tableto USD      2014-11-04 2014-11-21
##  3  1.67e I See Fi Film & Video  Documen USD      2013-01-31 2013-03-02
##  4  1.17e Life As  Comics        Graphic USD      2017-06-01 2017-07-30
##  5  1.29e Cornbrea Food          Food     USD      2011-02-04 2011-04-16
##  6  1.15e ReColoni Art           Install USD      2014-09-02 2014-09-12
##  7  1.80e "Recordi Music         Music    USD      2011-06-01 2011-07-01
##  8  1.75e "\"Ashpe Theater       Theater  USD      2011-10-03 2011-11-06
##  9  1.84e "\"JeleA Art           Painting AUD      2016-02-02 2016-03-18
## 10  1.62e ECLIPSE  Technology    Gadgets  EUR      2015-10-20 2015-11-24
## # ... with 298,498 more rows, and 7 more variables: state <chr>,
## #   backers <int>, country <chr>, pledged <dbl>, goal <dbl>, days <int>,
## #   word_count <int>
…
